{
  "$id": "registration.json",
  "$schema": "http://json-schema.org/draft-07/schema#",
  "$async": true,
  "title": "User Registration",
  "properties": {
    "email": {
      "type": "string",
      "format": "email",
      "unique": {
        "collection": "users",
        "field": "email"
      }
    },
    "username": {
      "title": "Username",
      "type": "string",
      "unique": {
        "collection": "users",
        "field": "username"
      },
      "maxLength": 23,
      "pattern": "[a-zA-Z0-9]+([_ -]?[a-zA-Z0-9])*$"
    },
    "password": {
      "type": "string",
      "minLength": 6,
      "maxLength": 255
    },
    "firstName": {
      "title": "First Name",
      "type": "string"
    },
    "lastName": {
      "title": "Last Name",
      "type": "string"
    },
    "newsletter": {
      "title": "Newsletter",
      "type": "boolean"
    }
  },
  "required": [
    "email",
    "username",
    "password"
  ]
}
